<svg width="54" height="54" viewBox="0 0 54 54" fill="none" xmlns="http://www.w3.org/2000/svg">
<path fill-rule="evenodd" clip-rule="evenodd" d="M26.9734 11.9109C24.0075 11.9117 21.1044 12.7647 18.6096 14.3686C16.1148 15.9724 14.1335 18.2595 12.9016 20.9574C11.6697 23.6553 11.2391 26.6503 11.6611 29.586C12.083 32.5217 13.3397 35.2743 15.2816 37.516C17.2235 39.7577 19.7687 41.3941 22.6142 42.2304C25.4597 43.0667 28.4856 43.0676 31.3316 42.233C34.1776 41.3984 36.7238 39.7635 38.667 37.5229C40.6103 35.2824 41.8686 32.5305 42.2923 29.5951H29.1839C28.5976 29.5951 28.0354 29.3622 27.6208 28.9477C27.2063 28.5331 26.9734 27.9708 26.9734 27.3846C26.9734 26.7983 27.2063 26.2361 27.6208 25.8215C28.0354 25.4069 28.5976 25.1741 29.1839 25.1741H44.6576C45.2439 25.1741 45.8061 25.4069 46.2207 25.8215C46.6352 26.2361 46.8681 26.7983 46.8681 27.3846C46.8676 31.8972 45.3331 36.2755 42.5163 39.801C39.6995 43.3265 35.7678 45.7896 31.3667 46.7861C26.9655 47.7826 22.3563 47.2533 18.2956 45.285C14.2349 43.3167 10.9641 40.0263 9.01983 35.9541C7.07562 31.8818 6.57359 27.2695 7.59615 22.8743C8.6187 18.4791 11.1051 14.5622 14.6472 11.7663C18.1893 8.97046 22.5767 7.46186 27.0892 7.48813C31.6017 7.5144 35.9712 9.07399 39.4805 11.9109C39.9364 12.2797 40.227 12.8144 40.2886 13.3975C40.3501 13.9805 40.1776 14.5642 39.8088 15.02C39.44 15.4758 38.9053 15.7665 38.3222 15.828C37.7392 15.8896 37.1555 15.717 36.6997 15.3483C33.9491 13.1184 30.5142 11.9045 26.9734 11.9109Z" fill="#414141"/>
</svg>
